TrabajoPersonal_AlvaroMartin
…
library(nycflights13)
aerolineas <- nycflights13::airlines
aeropuertos <- nycflights13::airports
vuelos <- nycflights13::flights
aviones <- nycflights13::planes
clima <- nycflights13::weather

EJ 1: Vuelos que llegaron más de 1 hora tarde de lo previsto

vuelos_retrasados <- filter(vuelos, arr_delay>60)
vuelos_retrasados

## # A tibble: 27,789 × 19
##     year month   day dep_time sched_dep_time dep_delay arr_time sched_arr_time
##    <int> <int> <int>    <int>          <int>     <dbl>    <int>          <int>
##  1  2013     1     1      811            630       101     1047            830
##  2  2013     1     1      848           1835       853     1001           1950
##  3  2013     1     1      957            733       144     1056            853
##  4  2013     1     1     1114            900       134     1447           1222
##  5  2013     1     1     1120            944        96     1331           1213
##  6  2013     1     1     1255           1200        55     1451           1330
##  7  2013     1     1     1301           1150        71     1518           1345
##  8  2013     1     1     1337           1220        77     1649           1531
##  9  2013     1     1     1342           1320        22     1617           1504
## 10  2013     1     1     1400           1250        70     1645           1502
## # … with 27,779 more rows, and 11 more variables: arr_delay <dbl>,
## #   carrier <chr>, flight <int>, tailnum <chr>, origin <chr>, dest <chr>,
## #   air_time <dbl>, distance <dbl>, hour <dbl>, minute <dbl>, time_hour <dttm>

dim(vuelos_retrasados)

## [1] 27789    19

Un total de 27789 vuelos llegaron a destino con más de 1 hora de retraso. En la data frame creada (“vuelos_retrasados”) pueden verse cuáles son.

EJ 2: Vuelos que volaron hacia San Francisco (aeropuertos SFO y OAK)

vuelos_sf <- filter(vuelos, dest == "SFO" | dest == "OAK")
vuelos_sf

## # A tibble: 13,643 × 19
##     year month   day dep_time sched_dep_time dep_delay arr_time sched_arr_time
##    <int> <int> <int>    <int>          <int>     <dbl>    <int>          <int>
##  1  2013     1     1      558            600        -2      923            937
##  2  2013     1     1      611            600        11      945            931
##  3  2013     1     1      655            700        -5     1037           1045
##  4  2013     1     1      729            730        -1     1049           1115
##  5  2013     1     1      734            737        -3     1047           1113
##  6  2013     1     1      745            745         0     1135           1125
##  7  2013     1     1      746            746         0     1119           1129
##  8  2013     1     1      803            800         3     1132           1144
##  9  2013     1     1      826            817         9     1145           1158
## 10  2013     1     1     1029           1030        -1     1427           1355
## # … with 13,633 more rows, and 11 more variables: arr_delay <dbl>,
## #   carrier <chr>, flight <int>, tailnum <chr>, origin <chr>, dest <chr>,
## #   air_time <dbl>, distance <dbl>, hour <dbl>, minute <dbl>, time_hour <dttm>
…
## [1] 312  19

Un total de 13643 vuelos volaron hacia San Francisco, siendo de ellos:

13331 vuelos al aeropuerto SFO.

312 vuelos al aeropuerto OAK.

EJ 3: Vuelos operados por United American (UA) o por American Airlines (AA)

vuelos_american <- filter(vuelos, carrier == "UA" | carrier == "AA")
vuelos_american

## # A tibble: 91,394 × 19
##     year month   day dep_time sched_dep_time dep_delay arr_time sched_arr_time
##    <int> <int> <int>    <int>          <int>     <dbl>    <int>          <int>
##  1  2013     1     1      517            515         2      830            819
##  2  2013     1     1      533            529         4      850            830
##  3  2013     1     1      542            540         2      923            850
##  4  2013     1     1      554            558        -4      740            728
##  5  2013     1     1      558            600        -2      753            745
##  6  2013     1     1      558            600        -2      924            917
##  7  2013     1     1      558            600        -2      923            937
##  8  2013     1     1      559            600        -1      941            910
##  9  2013     1     1      559            600        -1      854            902
## 10  2013     1     1      606            610        -4      858            910
## # … with 91,384 more rows, and 11 more variables: arr_delay <dbl>,
## #   carrier <chr>, flight <int>, tailnum <chr>, origin <chr>, dest <chr>,
## #   air_time <dbl>, distance <dbl>, hour <dbl>, minute <dbl>, time_hour <dttm>
…
## [1] 32729    19

Un total de 91394 vuelos volaron con alguna de estas dos aerolíneas:

58665 vuelos operados por United American (UA).

32729 vuelos operados por American Airlines (AA).

EJ 4: Vuelos que volaron en primavera (Abril, Mayo y Junio)

vuelos_primavera <- filter(vuelos, month == 4 | month == 5 | month == 6)
vuelos_primavera

## # A tibble: 85,369 × 19
##     year month   day dep_time sched_dep_time dep_delay arr_time sched_arr_time
##    <int> <int> <int>    <int>          <int>     <dbl>    <int>          <int>
##  1  2013     4     1      454            500        -6      636            640
##  2  2013     4     1      509            515        -6      743            814
##  3  2013     4     1      526            530        -4      812            827
##  4  2013     4     1      534            540        -6      833            850
##  5  2013     4     1      542            545        -3      914            920
##  6  2013     4     1      543            545        -2      921            927
##  7  2013     4     1      551            600        -9      748            659
##  8  2013     4     1      552            600        -8      641            701
##  9  2013     4     1      553            600        -7      725            735
## 10  2013     4     1      554            600        -6      752            805
## # … with 85,359 more rows, and 11 more variables: arr_delay <dbl>,
## #   carrier <chr>, flight <int>, tailnum <chr>, origin <chr>, dest <chr>,
## #   air_time <dbl>, distance <dbl>, hour <dbl>, minute <dbl>, time_hour <dttm>
…
Un total de 85369 vuelos volaron en los meses de primavera:

28330 vuelos en Abril.

28796 vuelos en Mayo.

28243 vuelos en Junio

EJ 5: Vuelos que llegaron más de 1 hora tarde, pero salieron con menos de 1 hora de retraso

vuelos_retra2 <- filter(vuelos, arr_delay>60 & dep_delay<60)
vuelos_retra2

## # A tibble: 4,956 × 19
##     year month   day dep_time sched_dep_time dep_delay arr_time sched_arr_time
##    <int> <int> <int>    <int>          <int>     <dbl>    <int>          <int>
##  1  2013     1     1     1255           1200        55     1451           1330
##  2  2013     1     1     1342           1320        22     1617           1504
##  3  2013     1     1     1402           1323        39     1650           1526
##  4  2013     1     1     1411           1315        56     1717           1611
##  5  2013     1     1     1424           1349        35     1701           1556
##  6  2013     1     1     1428           1329        59     1803           1640
##  7  2013     1     1     1558           1534        24     1808           1703
##  8  2013     1     1     1604           1510        54     1817           1710
##  9  2013     1     1     1608           1535        33     2002           1850
## 10  2013     1     1     1630           1548        42     1902           1755
## # … with 4,946 more rows, and 11 more variables: arr_delay <dbl>,
## #   carrier <chr>, flight <int>, tailnum <chr>, origin <chr>, dest <chr>,
## #   air_time <dbl>, distance <dbl>, hour <dbl>, minute <dbl>, time_hour <dttm>

dim(vuelos_retra2)

## [1] 4956   19

Un total de 4956 vuelos cumplieron esta condición.

EJ 6: Vuelos que salieron con más de 1 hora de retraso, pero llegaron con menos de media hora de retraso

vuelos_retra3 <- filter(vuelos, dep_delay>60 & arr_delay<30)
vuelos_retra3

## # A tibble: 181 × 19
##     year month   day dep_time sched_dep_time dep_delay arr_time sched_arr_time
##    <int> <int> <int>    <int>          <int>     <dbl>    <int>          <int>
##  1  2013     1     3     1850           1745        65     2148           2120
##  2  2013     1     3     1950           1845        65     2228           2227
##  3  2013     1     6     1019            900        79     1558           1530
##  4  2013     1     7     1543           1430        73     1758           1735
##  5  2013     1    12     1706           1600        66     1949           1927
##  6  2013     1    12     1953           1845        68     2154           2137
##  7  2013     1    19     1456           1355        61     1636           1615
##  8  2013     1    21     1531           1430        61     1843           1815
##  9  2013     1    21     1648           1545        63     1939           1910
## 10  2013    10    10     1938           1835        63     2158           2148
## # … with 171 more rows, and 11 more variables: arr_delay <dbl>, carrier <chr>,
## #   flight <int>, tailnum <chr>, origin <chr>, dest <chr>, air_time <dbl>,
## #   distance <dbl>, hour <dbl>, minute <dbl>, time_hour <dttm>

dim(vuelos_retra3)

## [1] 181  19

Un total de 181 vuelos aceleraron en el aire, cumpliendo esta condición.

EJ 7: Vuelos nocturnos

vuelos_nocturnos <- filter(vuelos, hour<=7)
vuelos_nocturnos

## # A tibble: 50,726 × 19
##     year month   day dep_time sched_dep_time dep_delay arr_time sched_arr_time
##    <int> <int> <int>    <int>          <int>     <dbl>    <int>          <int>
##  1  2013     1     1      517            515         2      830            819
##  2  2013     1     1      533            529         4      850            830
##  3  2013     1     1      542            540         2      923            850
##  4  2013     1     1      544            545        -1     1004           1022
##  5  2013     1     1      554            600        -6      812            837
##  6  2013     1     1      554            558        -4      740            728
##  7  2013     1     1      555            600        -5      913            854
##  8  2013     1     1      557            600        -3      709            723
##  9  2013     1     1      557            600        -3      838            846
## 10  2013     1     1      558            600        -2      753            745
## # … with 50,716 more rows, and 11 more variables: arr_delay <dbl>,
## #   carrier <chr>, flight <int>, tailnum <chr>, origin <chr>, dest <chr>,
## #   air_time <dbl>, distance <dbl>, hour <dbl>, minute <dbl>, time_hour <dttm>

dim(vuelos_nocturnos)

## [1] 50726    19

Hubo un total de 50726 vuelos nocturnos (operados entre la medianoche y las 7am).

EJ 8: Vuelos con hora de salida desconocida

vuelos_desconocidos <- filter(vuelos, is.na(dep_time))
vuelos_desconocidos

## # A tibble: 8,255 × 19
##     year month   day dep_time sched_dep_time dep_delay arr_time sched_arr_time
##    <int> <int> <int>    <int>          <int>     <dbl>    <int>          <int>
##  1  2013     1     1       NA           1630        NA       NA           1815
##  2  2013     1     1       NA           1935        NA       NA           2240
##  3  2013     1     1       NA           1500        NA       NA           1825
##  4  2013     1     1       NA            600        NA       NA            901
##  5  2013     1     2       NA           1540        NA       NA           1747
##  6  2013     1     2       NA           1620        NA       NA           1746
##  7  2013     1     2       NA           1355        NA       NA           1459
##  8  2013     1     2       NA           1420        NA       NA           1644
##  9  2013     1     2       NA           1321        NA       NA           1536
## 10  2013     1     2       NA           1545        NA       NA           1910
## # … with 8,245 more rows, and 11 more variables: arr_delay <dbl>,
## #   carrier <chr>, flight <int>, tailnum <chr>, origin <chr>, dest <chr>,
## #   air_time <dbl>, distance <dbl>, hour <dbl>, minute <dbl>, time_hour <dttm>
…
arr_time

arr_delay

tailnum

air_time

EJ 10: Vuelos más y menos retrasados en la salida

Los vuelos más retrasados a la hora de salida (mayor “dep_delay”), ordenados de mayor a menor, fueron:

arrange(vuelos, desc(dep_delay))

## # A tibble: 336,776 × 19
##     year month   day dep_time sched_dep_time dep_delay arr_time sched_arr_time
##    <int> <int> <int>    <int>          <int>     <dbl>    <int>          <int>
##  1  2013     1     9      641            900      1301     1242           1530
##  2  2013     6    15     1432           1935      1137     1607           2120
##  3  2013     1    10     1121           1635      1126     1239           1810
##  4  2013     9    20     1139           1845      1014     1457           2210
##  5  2013     7    22      845           1600      1005     1044           1815
##  6  2013     4    10     1100           1900       960     1342           2211
##  7  2013     3    17     2321            810       911      135           1020
##  8  2013     6    27      959           1900       899     1236           2226
##  9  2013     7    22     2257            759       898      121           1026
## 10  2013    12     5      756           1700       896     1058           2020
## # … with 336,766 more rows, and 11 more variables: arr_delay <dbl>,
## #   carrier <chr>, flight <int>, tailnum <chr>, origin <chr>, dest <chr>,
## #   air_time <dbl>, distance <dbl>, hour <dbl>, minute <dbl>, time_hour <dttm>

Los vuelos más adelantados a la hora de salida (“dep_delay” negativo) fueron:

arrange(vuelos, dep_delay)

## # A tibble: 336,776 × 19
##     year month   day dep_time sched_dep_time dep_delay arr_time sched_arr_time
##    <int> <int> <int>    <int>          <int>     <dbl>    <int>          <int>
##  1  2013    12     7     2040           2123       -43       40           2352
##  2  2013     2     3     2022           2055       -33     2240           2338
##  3  2013    11    10     1408           1440       -32     1549           1559
##  4  2013     1    11     1900           1930       -30     2233           2243
##  5  2013     1    29     1703           1730       -27     1947           1957
##  6  2013     8     9      729            755       -26     1002            955
##  7  2013    10    23     1907           1932       -25     2143           2143
##  8  2013     3    30     2030           2055       -25     2213           2250
##  9  2013     3     2     1431           1455       -24     1601           1631
## 10  2013     5     5      934            958       -24     1225           1309
## # … with 336,766 more rows, and 11 more variables: arr_delay <dbl>,
## #   carrier <chr>, flight <int>, tailnum <chr>, origin <chr>, dest <chr>,
## #   air_time <dbl>, distance <dbl>, hour <dbl>, minute <dbl>, time_hour <dttm>

EJ 11: Vuelos más rápidos

Creo una nueva columna llamada “velocidad”, donde calculo el valor de la velocidad de cada avión, entendida como el cociente entre la distancia recorrida entre los aeropuertos (en millas) y el tiempo (en horas) necesario para recorrer dicha distancia. Finalmente, se muestran ordenados los aviones más rápidos.

vuelos$velocidad <- vuelos$distance/(vuelos$air_time/60) #(millas/hora)
arrange(vuelos, desc(velocidad))

## # A tibble: 336,776 × 20
##     year month   day dep_time sched_dep_time dep_delay arr_time sched_arr_time
##    <int> <int> <int>    <int>          <int>     <dbl>    <int>          <int>
##  1  2013     5    25     1709           1700         9     1923           1937
##  2  2013     7     2     1558           1513        45     1745           1719
##  3  2013     5    13     2040           2025        15     2225           2226
##  4  2013     3    23     1914           1910         4     2045           2043
##  5  2013     1    12     1559           1600        -1     1849           1917
##  6  2013    11    17      650            655        -5     1059           1150
##  7  2013     2    21     2355           2358        -3      412            438
##  8  2013    11    17      759            800        -1     1212           1255
##  9  2013    11    16     2003           1925        38       17             36
## 10  2013    11    16     2349           2359       -10      402            440
## # … with 336,766 more rows, and 12 more variables: arr_delay <dbl>,
## #   carrier <chr>, flight <int>, tailnum <chr>, origin <chr>, dest <chr>,
## #   air_time <dbl>, distance <dbl>, hour <dbl>, minute <dbl>, time_hour <dttm>,
## #   velocidad <dbl>

EJ 12: Vuelos con trayectos más largos

Los vuelos con trayectos (entre aeropuertos de origen y destino) más largos (en millas) fueron:

arrange(vuelos, desc(distance))

## # A tibble: 336,776 × 20
##     year month   day dep_time sched_dep_time dep_delay arr_time sched_arr_time
##    <int> <int> <int>    <int>          <int>     <dbl>    <int>          <int>
##  1  2013     1     1      857            900        -3     1516           1530
##  2  2013     1     2      909            900         9     1525           1530
##  3  2013     1     3      914            900        14     1504           1530
##  4  2013     1     4      900            900         0     1516           1530
##  5  2013     1     5      858            900        -2     1519           1530
##  6  2013     1     6     1019            900        79     1558           1530
##  7  2013     1     7     1042            900       102     1620           1530
##  8  2013     1     8      901            900         1     1504           1530
##  9  2013     1     9      641            900      1301     1242           1530
## 10  2013     1    10      859            900        -1     1449           1530
## # … with 336,766 more rows, and 12 more variables: arr_delay <dbl>,
## #   carrier <chr>, flight <int>, tailnum <chr>, origin <chr>, dest <chr>,
## #   air_time <dbl>, distance <dbl>, hour <dbl>, minute <dbl>, time_hour <dttm>,
## #   velocidad <dbl>

EJ 13: Vuelos con trayectos más cortos

Los vuelos con trayectos más cortos (en millas) fueron:

arrange(vuelos, distance)

## # A tibble: 336,776 × 20
##     year month   day dep_time sched_dep_time dep_delay arr_time sched_arr_time
##    <int> <int> <int>    <int>          <int>     <dbl>    <int>          <int>
##  1  2013     7    27       NA            106        NA       NA            245
##  2  2013     1     3     2127           2129        -2     2222           2224
##  3  2013     1     4     1240           1200        40     1333           1306
##  4  2013     1     4     1829           1615       134     1937           1721
##  5  2013     1     4     2128           2129        -1     2218           2224
##  6  2013     1     5     1155           1200        -5     1241           1306
##  7  2013     1     6     2125           2129        -4     2224           2224
##  8  2013     1     7     2124           2129        -5     2212           2224
##  9  2013     1     8     2127           2130        -3     2304           2225
## 10  2013     1     9     2126           2129        -3     2217           2224
## # … with 336,766 more rows, and 12 more variables: arr_delay <dbl>,
## #   carrier <chr>, flight <int>, tailnum <chr>, origin <chr>, dest <chr>,
## #   air_time <dbl>, distance <dbl>, hour <dbl>, minute <dbl>, time_hour <dttm>,
## #   velocidad <dbl>
…
